module github.com/steemax/traefikservice-h2c-webhook

go 1.19

require (
	github.com/traefik/traefik/v2 v2.9.0
	k8s.io/api v0.26.1
	k8s.io/apimachinery v0.26.1
)

require (
	github.com/cenkalti/backoff/v4 v4.1.3 // indirect
	github.com/go-acme/lego/v4 v4.7.0 // indirect
	github.com/go-logr/logr v1.2.3 // indirect
	github.com/gogo/protobuf v1.3.2 // indirect
	github.com/google/gofuzz v1.2.0 // indirect
	github.com/gorilla/mux v1.8.0 // indirect
	github.com/json-iterator/go v1.1.12 // indirect
	github.com/miekg/dns v1.1.47 // indirect
	github.com/modern-go/concurrent v0.0.0-20180306012644-bacd9c7ef1dd // indirect
	github.com/modern-go/reflect2 v1.0.2 // indirect
	github.com/patrickmn/go-cache v2.1.0+incompatible // indirect
	github.com/sirupsen/logrus v1.8.1 // indirect
	github.com/traefik/paerser v0.1.9 // indirect
	golang.org/x/crypto v0.1.0 // indirect
	golang.org/x/mod v0.6.0 // indirect
	golang.org/x/net v0.3.1-0.20221206200815-1e63c2f08a10 // indirect
	golang.org/x/sys v0.3.0 // indirect
	golang.org/x/text v0.5.0 // indirect
	golang.org/x/tools v0.2.0 // indirect
	gopkg.in/inf.v0 v0.9.1 // indirect
	gopkg.in/square/go-jose.v2 v2.6.0 // indirect
	gopkg.in/yaml.v2 v2.4.0 // indirect
	k8s.io/apiextensions-apiserver v0.26.1 // indirect
	k8s.io/klog/v2 v2.80.1 // indirect
	k8s.io/utils v0.0.0-20221128185143-99ec85e7a448 // indirect
	sigs.k8s.io/json v0.0.0-20220713155537-f223a00ba0e2 // indirect
	sigs.k8s.io/structured-merge-diff/v4 v4.2.3 // indirect
	sigs.k8s.io/yaml v1.3.0 // indirect
)
